{
  "project_info": {
    "project_number": "957594288033",
    "firebase_url": "https://tastemaqers-aa4d3.firebaseio.com",
    "project_id": "tastemaqers-aa4d3",
    "storage_bucket": "tastemaqers-aa4d3.appspot.com"
  },
  "client": [
    {
      "client_info": {
        "mobilesdk_app_id": "1:957594288033:android:a458238102a31414",
        "android_client_info": {
          "package_name": "com.example.tastemaqers"
        }
      },
      "oauth_client": [
        {
          "client_id": "957594288033-d234aouj7pcid85uv0v4tctgitbbkfvl.apps.googleusercontent.com",
          "client_type": 1,
          "android_info": {
            "package_name": "com.example.tastemaqers",
            "certificate_hash": "d31f61fea0c145508f853baefbb6d54f8acb45e5"
          }
        },
        {
          "client_id": "957594288033-5frridadaokvmj5phb0926jb371c4pdd.apps.googleusercontent.com",
          "client_type": 3
        }
      ],
      "api_key": [
        {
          "current_key": "AIzaSyAObgZefh3-Ig8ByvA0508vWUO0jRhFJRM"
        }
      ],
      "services": {
        "appinvite_service": {
          "other_platform_oauth_client": [
            {
              "client_id": "957594288033-5frridadaokvmj5phb0926jb371c4pdd.apps.googleusercontent.com",
              "client_type": 3
            }
          ]
        }
      }
    }
  ],
  "configuration_version": "1"
}